<?xml version="1.0" encoding="utf-8"?>
<!-- Generator: Adobe Illustrator 18.1.1, SVG Export Plug-In . SVG Version: 6.00 Build 0)  -->
<svg version="1.1" id="Layer_1" xmlns="http://www.w3.org/2000/svg" xmlns:xlink="http://www.w3.org/1999/xlink" x="0px" y="0px"
	 viewBox="0 0 64 64" style="enable-background:new 0 0 64 64;" xml:space="preserve">
<g>
	<g>
		<rect x="23.5" y="24.1" style="fill:#0098A1;" width="4.9" height="3.1"/>
		<rect x="25.5" y="4.5" style="fill:#0098A1;" width="1" height="20.8"/>
		<circle style="fill:#0098A1;" cx="26" cy="4.5" r="1"/>
		<rect x="26" y="5.9" style="fill:#0098A1;" width="9.6" height="7.8"/>
		<polygon style="fill:#0098A1;" points="40,6.6 34.5,6.6 34.5,14.5 40,14.5 37.8,10.6 		"/>
	</g>
	<path style="fill:#0098A1;" d="M63.3,57.4L49.9,39.5c-1.4-1.9-3.7-1.9-5.1,0l-1.1,1.4c-0.1,0.1-0.2,0.2-0.3,0.3l4.8,6.3
		c0.7,0.9,0.6,2.1-0.2,2.8c-0.8,0.7-1.9,0.5-2.6-0.4l-6.8-9c0,0,0,0,0,0L28.4,27.1c-1.4-1.9-3.7-1.9-5.1,0L0.7,57.4
		C-0.7,59.3,0.1,61,2.4,61h59.2C63.9,61,64.7,59.3,63.3,57.4z"/>
</g>
</svg>
